xalapa

anio -->2019
mpio --> Xalapa
latitud --> 19.5408338
longitud --> -96.9146374
--------------------------------->
UPDATE brm_boletin1 SET LATITUD=19.5408338,LONGITUD=-96.9146374 WHERE MPIO='Xalapa' AND ANIO=2019;
-------------------------------->

---------------------------------------
SELECT ANIO,LATITUD,LONGITUD FROM brm_boletin1 WHERE MPIO="Xalapa" AND ANIO=2019;
---------------------------------------
43 filas afectadas;

actualizacion de xalapa:
UPDATE brm_boletin1 SET LONGITUD=-96.9146374 WHERE MPIO='Xalapa' AND ANIO=2019;
/////////////////////////////////777
zongolica.
--------------------------------------------------->
UPDATE brm_boletin1 SET LATITUD=18.6667231,LONGITUD=-96.9982102 WHERE MPIO="Zongolica" AND LOC = "Zongolica" AND ANIO=2019;
--------------------------------------------------->
/////////////////////////////////////////7777
Córdoba--->
2019
--->lat--->  18.962894219244284
-->long--> -96.908028068188443
18.8944704
-96.9352891
------------------------------------------------------->
UPDATE brm_boletin1 SET LATITUD=18.8944704,LONGITUD=-96.9352891 WHERE MPIO="Córdoba" AND LOC = "Córdoba" AND ANIO=2019;
------------------------------------------------------->

//////////////////////
actualizaciones
nom