﻿id,tipo,nombre,representante,estado,municipio,localidad,cve_geo,correo,blog,redes,twitter,mision,latitud,longitud
1,Emprendedor cultural,CineTeatro Ar Zá Amealco,S/D,Querétaro,Amealco de Bonfil,Amealco de Bonfil,220010001,balam_metic@yahoo.com,S/D,https://www.facebook.com/ArZaCultura/,S/D,"A través del cine, las artes escénicas, el rescate y promoción de la lengua hñäño, la herbolaría, la partería, la música tradicional y moderna; Ar Zá busca convertirse en un espacio de convivencia comunitaria, de generación de cultura crítica, de intercambio y diálogo.",20.18731, -100.14501
2,Gestor,CicloCinema,Carolina Gómez García,Veracruz de Ignacio de la Llave,Camerino Z. Mendoza,Ciudad Mendoza,300300001,cabrolina.gomez@gmail.com,S/D,https://www.facebook.com/CicloCinema/,S/D,Nuestra visión es generar experiencias colectivas que fortalezcan los lazos de convivencia social y con el medio ambiente. CICLOCINEMA es un ciclo itinerante de talleres de formación en cine y de proyecciones al aire libre donde utilizamos la energía que está siendo generada por el público con una bicicleta para ver películas.,18.80428, -97.18462
3,Gestor,Videoteca Bengala,,Veracruz de Ignacio de la Llave,Camerino Z. Mendoza,Ciudad Mendoza,300300001,videoteca.bengala@gmail.com,S/D,https://www.facebook.com/VideotecaBengala/,vbengala," Videoteca Bengala es una organización juvenil, sin ánimo de lucro que se creo en el Valle de Orizaba, Veracruz con el único fin de entretener a la población mediante la proyección de películas.",18.79980,-97.17970
4,Creador,Orlando Bautista Villegas,S/D,Veracruz de Ignacio de la Llave,Camerino Z. Mendoza,Ciudad Mendoza,300300001,entenados_gt@hotmail.com,S/D,"Facebook: Orlando Entenados, https://www.facebook.com/Entenados-de-Stanislavsky-Teatro-170432312999079/",S/D,Crear obras de teatro de autoría propia,18.80743, -97.18273
5,Creador,Taller de Arte y Diseño Orizaba,Guillermo Arrioja,Veracruz de Ignacio de la Llave,Camerino Z. Mendoza,Ciudad Mendoza,300030001,guillermoarrioja@gmail.com,S/D,Taller de Arte y Diseño.  Orizaba,S/D,Proporcionar cursos y formación creativa y comunicación visual,18.80998,-97.17683
6,Gestor,Empoderando Mujeres. A.C,Reyna martha gil rojas ,Veracruz de Ignacio de la Llave,Córdoba,Córdoba,300440001,marthagilr1@msn.com,S/D,https://www.facebook.com/martha.gil.948494/,@empoderandomuj2,Trabajar en conjunto con planes integrales que contribuyan al empoderamiento de las mujeres en todos los ambitos de la vida y con ello su desarrollo personal y cultural etc.,18.88961,-96.93684
7,Creador,Hotel Imperial. Centro Cultural Comunitario,Jael Gómez,Veracruz de Ignacio de la Llave,Córdoba,Córdoba,300440001,jael.gmz@outlook.com,S/D,https://www.facebook.com/pg/Hotel-Imperial-Centro-Cultural-Comunitario-131945997443219/about/?ref=page_internal,S/D,Llegar a ser un centro cultural comunitario independiente,18.88119,-96.93013
8,Emprendedor cultural,Audio Sahc Records,Salomón Hernández Carrera,Veracruz de Ignacio de la Llave,Córdoba,Córdoba,300440001,audiosahc@gmail.com,S/D,"www.audiosahc.com, www.facebook.com/SerArteTV",Audiosahc,"Brindar a los artistas, creadores, educadores y gestores culturales de la región, un espacio donde mostrar su trayectoria y quehacer artístico, acercándolos a su público potencial y brindándoles reconocimiento y difusión.",18.88484,-96.92847
9,Gestor,Galería Citlaltépetl,Saúl Sánchez Baroja y Silvia Martínez Saavedra,Veracruz de Ignacio de la Llave,Coscomatepec,Coscomatepec de Bravo,300470001,jarochita1231@live.com,S/D,"www.facebook.com/Galeria-Citlaltepetl-en-VeracruzMexico, www.facebook.com/silvia.martinezsaavedra",S/D,"Las manifestaciones artísticas del ser humano han servido para ilustrar y conocer más y mejor la historia del hombre y sus variadas culturas, así como, la evolución del planeta que habita. A ciertas actividades artísticas, cuya intención trasciende más allá de la simple utilidad de los objetos que crean, se les ha nombrado bellas artes. Tradicionalmente se han tenido como tales: la pintura, la escultura, la arquitectura, la música y la poesía, en cuyos ejercicios predomina una motivación estética. Pero como en casi todas las artes se combinan en mayor o menor grado los elementos estéticos con los utilitarios, no es posible establecer una diferencia absoluta entre bellas artes y artes aplicadas. Hoy se reconoce que participan de las características de bellas artes, muchas otras como: el cine, la televisión, la cerámica, la joyería, el tejido, la ebanistería, etc. De aquí que: el compromiso de la “galería/artista”, A.C” es proponer, enseñar y difundir en los habitantes de esta región, los conocimientos requeridos para la apreciación, valoración y practica de las mismas.",19.07569,97.05302
10,Gestor,Zona de Creación,Indira Rodríguez Martínez,Veracruz de Ignacio de la Llave,Ixhuatlancillo,Ixhuatlancillo,300810001,zonadecreacion21@gmail.com,S/D,FB: Zona de creación,S/D,Gestionar espacios de la región de las altas montañas como recreación y esparcimiento para niñas y niños. Con base a la creatividad y expresión artística.,18.87469,-97.12454
11,Creador,La Nun.k Muerta Rebelión,S/D,Veracruz de Ignacio de la Llave,Rafael Delgado,Jalapilla,301350002,lanunk@hotmail.com / galvez.lara@hotmail.com,S/D,"Facebook: La Nunk Muerta Rebelión, Página Facebook: La Nun.k Muerta Rebelión, Sitio Web: www.lanunk.com.mx",S/D,"Recuperar, a través de la música, nuestras raíces culturales (tanto de la cultura nahua de la sierra de Zongolica, como de la cultura urbana) dandóles presencia a nivel nacional e internacional.",18.82440,-97.08992
12,Emprendedor cultural,Zontradición del ITSZ,S/D,Veracruz de Ignacio de la Llave,Zongolica,La Compañia,302010137,becas@itszongolica.edu.mx,S/D,https://www.facebook.com/Zontradicion/,S/D,"Promover la diversidad cultural de la sierra de Zongolica, Veracruz, México en todas sus expresiones a través de la danza y la música, rescatando las tradiciones y costumbres de los pueblos, promoviendo así nuestra identidad.",18.65005,-97.00804
13,Gestor, Laboratorio Escénico A.C.,Yesenia Muñoz Páez,Veracruz de Ignacio de la Llave,Mariano Escobedo,Loma Grande,301010007,laboratorioescenico@yahoo.com,www.labeac.org,https://www.facebook.com/laboratoriescenico/,@LABEAC,"Investigar, crear, formar, promover, difundir y vincular el arte con el desarrollo de la conscincia, el desarrollo humano y el desarrollo comunitario.",18.93156,-97.22877
14,Emprendedor cultural, Istante Studio,Josafat Osorio,Nuevo León,Monterrey,Monterrey,190390001,Josafato@me.com,S/D,www.istante.com.mx - https://www.facebook.com/Istante.Studio,S/D,Promover el arte y apoyar al artista para que la cultura de méxico se enriquezca.,25.67201, -100.32363
15,Promotor/animador cultural,ACCESA Cultura y espectáculos,Itzel Del Ángel Villalobos Gasca,Veracruz de Ignacio de la Llave,Orizaba,Orizaba,301180001,angel_itzel7@gmail.com,S/D,"FB: @ActivadoraCultural, Twitter: @ACCESAespectaculos",S/D,"Promover las artes escénicas, acercando espectáculos profesionales a la región; así como satisfacer las necesidades y expectativas de entretenimiento, impulsando talentos nacionales y regionales, e incidiendo en el desarrollo humano, social y económico de la población, a través del consumo de actividades artísticas y culturales.",18.85133,-97.11128
16,Creador,Adrián Sánchez Oropeza,S/D,Veracruz de Ignacio de la Llave,Orizaba,Orizaba,301180001,aso3003@gmail.com,S/D,Adrián Sánchez Oropeza/facebook,S/D,"Generar acciones de producción,gestión y promoción para con las artes plásticas.",18.85258, -97.09517
17,Promotor/animador cultural,Centro Cultural Autogestivo Conejo Clandestino , Yetlanezi Atenco Sánchez,Veracruz de Ignacio de la Llave,Orizaba,Orizaba,301180001,elconejo.orizaba@gmail.com,S/D,facebook.com/ConejoClandestino,S/D,Usar las expresiones artísticas y culturales como herramientas de reconstrucción del tejido social.,18.84511,-97.10555
18,Promotor/animador cultural,Colectivo Cerro del Borrego,S/D,Veracruz de Ignacio de la Llave,Orizaba,Orizaba,301180001,cerrodelborrego@gmail.com,S/D,https://www.facebook.com/ColectivoCerrodelBorrego/,S/D,"Fomentar una cultura de educación ambiental en la población de la región de Orizaba, Ver., con un espíritu de respeto a la naturaleza y en defensa del territorio.",18.84553, -97.10468
19,Gestor,Colectivo Cultural Náhuatl Nikan Tipowi,S/D,Veracruz de Ignacio de la Llave,Orizaba,Orizaba,301180001,"

csandova33@gmail.comgishemoon@gmail.com",S/D,Facebook: Colectivo Cultural Náhuatl Nikan Tipowi,S/D,Visibilizar la presencia y fortalecer las expresiones diversas de cultura náhuatl en la región centro del estado de Veracruz.,18.84453, -97.09919
20,Emprendedor cultural,Kaffé Real,Isabel Choy Urias,Veracruz de Ignacio de la Llave,Orizaba,Orizaba,301180001,antonio.garcia.17.1986@gmail.com,https://kaffe-real.negocio.site/,Facebook,S/D,"Ser una empresa inclusiva de arte, cultura, y productores artesanales",18.84544, -97.10479
21,Promotor/animador cultural,Librería Biulú,S/D,Veracruz de Ignacio de la Llave,Orizaba,Orizaba,301180001,liberiabiulu@hotmail.com,S/D,"www.libreria-biulu-orizaba.com, www.facebook.com/libreriaBiulu",S/D,"Somos una empresa comprometida con la formación de lectores a travéss de la distribución de títulos de las mejores editoriales satisfaciendo las necesidades, gustos e intereses de una población diversa, complementado esto con la realizacion de talleres de lectura y escritura así como la realización de ferias de libro.",18.85167, -97.09495
22,Emprendedor cultural,Orquesta Filarmonica de las Altas Montañas (OFAM),David  García ,Veracruz de Ignacio de la Llave,Orizaba,Orizaba,301180001,ofamorizaba@gmail.com,S/D,Facebook: https://www.youtube.com/channel/UCudOocc4oAMWO8Et4ZL-Tfw Youtube https://www.youtube.com/channel/UCudOocc4oAMWO8Et4ZL-Tfw,S/D,"difundir y fomentar la musica clasica contemporánea y popular integrando una fraternidad de musicos locales y regionales para interpretar la musica con pasion y profesionalismo.Es una agrupación musical conformada por profesionistas amantes de la música, estudiantes y músicos invitados y de la región de las Altas Montañas con el fin de difundir la música clásica. contemporánea y popular en la región del centro del Estado Veracruz\",18.85867, -97.10479
23,Creador,Luis Alfonso González Valdivia,S/D,Veracruz de Ignacio de la Llave,Orizaba,Orizaba,301180001,leoaguila_49@hotmail.com,S/D,"https://twitter.com/LeoaguilaLuis , https://www.facebook.com/luisgova",S/D,"Promover el arte y la cultura en pos de la inclusión, grupos vulnerables y educación especial, crear y trascender",18.86948,-97.09439
24,Emprendedor cultural,Alma Delia Hernández Herrera,S/D,Veracruz de Ignacio de la Llave,Orizaba,Orizaba,301180001,alma_mom_g@hotmail.com,S/D,https://www.facebook.com/aldecoopac/?ref=settings,S/D,"Incrementar en las mujeres e infantes el interés de tener una mejor forma de vida mediante la educación, desarrollándose en un ambiente de aprendizaje constante, formando mujeres productivas y jóvenes creativas. Contribuyendo en su desarrollo social y proporcionarles los medios de participar plenamente en la esfera económica, educativa, cultural y profesional.",18.86011,-97.11325
25,Creador,Casa 243. Foro-Galería,Octavio Sánchez Oropeza.,Veracruz de Ignacio de la Llave,Orizaba.,Orizaba.,301180001,casa243@outlook.com marcasimetrica@hotmail.com,S/D,Facebook:https://www.facebook.com/Casa243/,S/D,"Promover a los artistas de la región, (zona altas montañas) espacio independiente, abierto para actividades culturales, talleres, exposiciónes, presentaciones artísticas, con el firme interés de ser un lugar accesible para el escenario artístico de la región.",18.84733,-97.10113
26,Emprendedor cultural,Ciartes y Sí A.C.,Ana Liedo Lavaniegos - Alberto Lara Enríquez,Hidalgo,Pachuca de Soto,Pachuca de Soto,130480001,grupo.y.si@gmail.com,www.ciartesysi.org,"facebook.com/ciartesysi, twitter @Y_si_",S/D,"Somos una red de artistas que trabajamos en la expansión de la consciencia a través de lenguajes artísticos. Generamos propuestas creativas que primero hagan crecer al mismo equipo creativo y después proponer transformaciones en la mirada y la cotidianidad de quienes en ellas participan. Logramos que cada persona que entre al foro se sienta con ganas de permanecer en el espacio y de regresar. Enfocamos nuestro trabajo en: Interculturalidad, Juventud y género; y consciencia planetaria",20.12778,-98.73378
27,Gestor,Movimiento Cultural ARTERIA ,Horacio Hernández Guerrero,Hidalgo,Pachuca de Soto,Pachuca de Soto,130480001,oicaro77@hotmail.com,S/D,Facebok: Arteria ,arteriamovimiento,"Crear sinergias entre gestores, creadores y artistas e instituciones gubernamentales, ONG’s y empresas con el fin de promover e impulsar la industria artística y cultural independiente en Hidalgo.",20.11859,-98.72797
28,Promotor/animador cultural,Gisela Hernandez Muñoz,S/D,Veracruz de Ignacio de la Llave,Rafael Delgado,Rafael Delgado,301350001,gishemoon@gmail.com,S/D,Facebook: Gishem Hernandez,S/D,Promover a través de diversos medios la cultura local,18.82067,-97.08395
29,Creador,Joel Merino ,S/D,Querétaro,Querétaro,Santiago de Querétaro,20140001,jmerinoart@hotmail.com,S/D,facebook.com/jmerinoart,S/D,compartir de manera digna las tradiciones de nuestros ancestros.,20.59261,-100.39456
30,Creador,Escuela Primaria General Miguel Alemán, Jennifer Arellano González,Veracruz de Ignacio de la Llave,Soledad Atzompa,Soledad Atzompa,301470001,jennifer_ag_7@hotmail.com,S/D,"Jennifer Arellano González Cd. Mendoza, Ver.",S/D,Impartir una educación pertinente y contextualizada a la población estudiantil que les permita convertirse en​ ciudadanos virtuosos.,18.75467, -97.15148
31,Promotor/animador cultural,Nonoalka,Carlos Soriano López,Veracruz de Ignacio de la Llave,Tlilapan,Tlilapan,301850001,nonoalka@hotmail.com,"https://grupononoalka.wordpress.com/
",Youtube: Canal https://www.youtube.com/user/Nonoalka Facebook:https://www.facebook.com/Nonoalka/,NonoalkaOficial,Difundir la lengua náhuatl a través de la música y el canto,18.80633,-97.09791
32,Gestor,Miguel Ángel Zamudio,S/D,Veracruz de Ignacio de la Llave,Veracruz,Veracruz,300280037,miguelzamudio@me.com,S/D,"https://www.facebook.com/fondeartemx/, http://www.fondearte.mx",fondearteAC,Propiciar un acercamiento de la sociedad a la comunidad artística y cultural,19.15736, -96.15989
33,Creador,Adriana Durán,S/D,Veracruz de Ignacio de la Llave,Xalapa,Xalapa-Enríquez,300870001,nodosur.gestion@gmail.com,S/D,https://www.facebook.com/nodosur.incubadoracultural/,S/D,"Impulsar el ecosistema emprendedor en el estado de Veracruz, en el sector cultural",19.53079, -96.9008
34,Creador,Alejandro Escudero,S/D,Veracruz de Ignacio de la Llave,Xalapa,Xalapa-Enríquez,300870001,trovante@live.com.mx,S/D,https://www.facebook.com/Atemoztli,S/D,Renovar la música tradicional,19.53079, -96.9008
35,Creador,Betania Benitez Rodriguez,S/D,Veracruz de Ignacio de la Llave,Xalapa,Xalapa-Enríquez,300870001,betania76@hotmail.com,S/D,"Facebook Betania Benitez Rodriguez, Vulcanizadora Producciones; Compañia Cabaret Xalapa",S/D,"Promover la Cultura a través de producciones Teatrales y Radiofónicas, con contenidos sociales de impacto en niños, jóvenes y adultos",19.53619,-96.92138
36,Creador,Marian GC,S/D,Veracruz de Ignacio de la Llave,Zongolica,Zongolica,302010001,mariian.gc@outlook.com,S/D,Facebook:https://www.facebook.com/mariian.gc.9,S/D,"Promover el rescate del patrimonio histórico - cultural y la integración de arte, a través de la arquitectura y el urbanismo.",18.66660,-96.99850
37,Creador,"MIKISTLI, banda de metal en lengua náhuatl. ", Oswaldo Flavio Gálvez Castillo,Veracruz de Ignacio de la Llave,Zongolica,Zongolica,302010001,mozbeat@hotmail.com,S/D,www.facebook.com/mikilistli,S/D,Promover la lengua náhuatl a través de canciones que versan sobre mitos y leyendas del México Antigüo y música original en el estilo del metal.,18.66674,-97.00280
38,Promotor/animador cultural,Arte en Raíz,Rebeca Alle Rivera,Veracruz de Ignacio de la Llave,Orizaba,Orizaba,301180001,psic.rebeca.alle@gmail.com,S/D,Facebook:Becka Beckosa y https://www.facebook.com/pg/ArteenRaiz,S/D,Promover la literatura y el arte gestionando eventos y talleres de calidad excelsa.,18.84553, -97.10337
39,Gestor,Academia de las Artes y las Ciencias Cinematográficas de Hidalgo,Gilberto Ríos Hinojosa,Hidalgo,Pachuca,Pachuca de Soto,130480001,info@cinehidalgo.com,www.cinehidalgo.org,Facebook: https://www.facebook.com/cinehgo/,HGOFILMFEST,"Promover y fomentar la industria cinematográfica en el estado de Hidalgo. Actividades como:Taller de Cine Joven , Festival Internacional de Cine de Hidalgo, Hidalgo Film Fest, Muestra Itinerante, Cursos y Diplomados, Academia.\
",20.07450,-98.77475
40,Creador,La elipse del viento,René E.Peregrina,Veracruz de Ignacio de la Llave,Mariano Escobedo,Palmira,301010018,rene.a.peregrina@gmail.com,S/D,"Facebook: https://www.facebook.com/La-Elipse-del-Viento-1051575161652889/, https://www.facebook.com/rene.peregrina.75",S/D,"Crear un espacio para los creadores literarios locales, así como el fomento de la lectura.",18.87888,-97.11581
41,Creador,Biblioteca municipal El Encinar,AMPARO CRISTAL SANCHEZ REYES,Veracruz de Ignacio de la Llave,Orizaba,El encinar,301150001,335473.lg@gmail.com,S/D,Facebook: Biblioteca Encinar,S/D,Promover el desarrollo cultural y social de de nuestra comunidad y la biblioteca en actividades creativas y recreativas en el periodo vacacional julio-agosto en la biblioteca publica municipal el encinar 8633 abriendo una convocatoria donde indicara las categorías para inscribirse los interesados ya que vamos a contar con diferentes talleres,18.81094,-97.19308
42,Gestor,Coordinación de cultura de Nogales Veracruz,Marcos Merino,Veracruz de Ignacio de la Llave,Nogales,Río Blanco,S/D,Marcoribus@gmail.com,S/D,Marcos Merino/ el más horrible poeta,@marcoribus,Promover las artes y la Cultura,18.81246,-97.18790
43,Creador,ZienCuentos narrador oral,Neil Eduardo Isaza Zuquin,Estado de México,Barrio Santiaguito,Metepec,150540102,ziencuentos@gmail.com,"https://issuu.com/ziencuentos/docs/contemos_cuentos
",www.facebook.com/pg/ZIENCuentos/,S/D,"Compartir experiencias a través de una historia contada, de manera sencilla, directa y con contenido; para que todo aquel que se permita escuchar se apropie del poder de la metáfora como herramienta de transformación personal, mientras aprendemos divirtiéndonos.",19.26172,-99.61558
44,Gestor,Casa de Cultura La Concepción,Laura María Domínguez Rivera,Veracruz de Ignacio de la Llave,Jilotepec,La Concepción,300930002,laurarivera0207@gmail.com,S/D,Casa de cultura La Concepción,S/D,Acercar a la sociedad civil local a las manifestaciones artísticas y culturales como forma de recreación y re valoración de su riqueza cultural.,19.57759,-96.86638
45,Promotor/animador cultural,Ccinemedia,Isabel Jiménez Camacho,Puebla,Puebla,Heróica Puebla de Zaragoza,211140001,ccinemedia@gmail.com,http://ccinemedia.blogspot.com/,"https://www.facebook.com/ccinemedia, https://www.facebook.com/ccinemedia.casa.verde/",ccinemedia,Promover la participación ciudadana a partir de la educación audiovisual y el fomento de la cultura cinematográfica.,19.04318,-98.18254
46,Gestor,"Red de Huertos Escolares y Comunitarios. Xalapa-Coatepec, Veracruz, México",Kay Nicté Nava Nasupcialy,Veracruz de Ignacio de la Llave,Xalapa,Xalapa-Enríquez,300870001,rhec.redhuertosescolares@gmail.com,https://rhecredhuertos.wixsite.com/rhec,https://www.facebook.com/reddehuertosescolaresycomunitarios/,S/D,"Construir alternativas en respuesta a la crisis ambiental, alimentaria y de salud, en la zona geográfica Xalapa-Coatepec, Ver., logramos conformar una Red de actores entusiasmados por promover la implementación de huertos tanto escolares como comunitarios con el objetivo de crear espacios de aprendizaje que fortalezcan lazos solidarios, pensamiento crítico, la creatividad, la buena alimentación y la salud integral, a través de pequeños cultivos agroecológicos.",19.53905,-96.89728
47,Creador,Galería Casa de la Nube,Selene Isolda Dosamantes Carrasco,Tlaxcala,Tlaxcala,Tlaxcala,290330009,dosamisol@gmail.com,S/D,"Casa de la Nube, Galería",Isolda Dosamantes,"La Galería Casa de la Nube es un espacio cultural independiente ubicado en la capital del estado de Tlaxcala inició sus actividades en el año 2011. Su objetivo es el fomento y difusión de la creación artística (con énfasis en la literatura y las artes plásticas), para ello ha emprendiendo diversas actividades: más de cincuenta exposiciones de arte, talleres literarios, presentaciones de libros, lecturas, ciclos de cine, presentaciones musicales, cinco encuentros nacionales de poetas, espectáculos multidisciplinarios.",19.32824,-98.22168
48,Emprendedor cultural,Universidad Veracruzana,Darío Fabián Hernñández González,Veracruz de Ignacio de la Llave,Xalapa,Xalapa,300870001,darhernandez@uv.mx,https://www.uv.mx/congreso-tequio/,https://www.facebook.com/dario.fabian1,S/D,"La Red VITAE-VIDA trabaja con Artesanos y productores locales-regionales del Centro del Estado de Veracruz, y otras localidades veracruzanas, para el fomento del desarrollo de actividades artísticas y culturales, preservación y fomento de la vida (modos de vida especialmente), con estrategias de Economía Social y Solidaria.",19.53516,-96.89317
49,Creador,Espora Producciones,David Donner Castro,Veracruz de Ignacio de la Llave,Tlalnehuayocan,Rancho Viejo,301820003,esporakolectivo@gmail.com,www.esporaproducciones.com,www.facebook.com/esporaproducciones,S/D,"Somos un grupo de trabajo transdisciplinar que concibe el cine como medio artístico de transformación y reavaloración cultural. Promovemos el diálogo intercultural y el intercambio de saberes entre las ciencias especializadas, las artes y el público en general a través de las artes cinematográficas y los medios audiovisuales. Uno de nuestros proyectos es Cine de la Cuenca. Unidos por el agua, un proceso de creación, educación y proyección de cine documental de calidad que tiene su base en la Cuenca de la Antigua.",19.56744,-96.97471
50,Gestor,Desarrollo Sustentable del Río Sedeño Lucas Martin A.C.,,Veracruz de Ignacio de la Llave,Xalapa,Xalapa-Enríquez,300870001,frvazqueza@yahoo.com.mx,S/D,Facebook rescate del río sedeno,S/D, Gestión Integrada y Compartida de los recursos hídricos y entorno ambiental y articulación comunitaria hacia el Buen Vivir,19.57915,-96.92268
51,Emprendedor cultural,Danza y Neurodiversidad,Abril Alejandra Vázquez García,Hidalgo,Pachuca de Soto,Pachuca de Soto,130480001,abril.alejandra.217038@gmail.com,S/D,https://www.facebook.com/DanzaInclusion/,S/D,Incluir a personas con discapacidad a las actividades artísticas y culturales en Pachuca y Municipios aledaños,20.06630,-98.78890
52,Promotor/animador cultural,Talleres de Son Jarocho,Arantxa Peláez Cházaro,Veracruz de Ignacio de la Llave,Xalapa,Xalapa-Enríquez,300870001,arantxapelaez@gmail.com,www.talleresdesonjarocho.com, Talleres de Son Jarocho,S/D,Promover Talleres en Son Jarocho al rededor de todo el mundo y crear una base de datos previa al análisis etnográfico de la práctica pedagógica en dichos Talleres.,19.52628,-96.91945
53,Promotor/animador cultural,Museo de Antropología de Xalapa,Azminda Meybelli Román Nieto,Veracruz de Ignacio de la Llave,Coatepec,La Laguna,300380183,azmindaroman@gmail.com,https://museosdesdelacotidianidad.wordpress.com/,S/D,Twitter @AzmindaRomaN,"Fortalecer actividades culturales desde el enfoque de la Educación Patrimonial, específicamente en museos.",19.48189,-96.93194
54,Gestor,"CulturAula, comunidades aprendiendo",Rocío Orozco Sánchez,Jalisco,Guadalajara,Guadalajara,140390001,colectivoculturaula@gmail.com,http://culturaula.com/,https://www.facebook.com/CulturAulaGdl,S/D,"La colectiva CulturAula, Comunidades Aprendiendo es una Iniciativa en Educación Popular dedicada a la investigación, diseño metodológico y aplicación de programas para el desarrollo sociocultural comunitario, la formación y sensibilización en el sector artístico y cultural. Promueve la descentralización de la educación y la cultura, la recuperación, re-significación y buen uso del espacio público, así como el reconocimiento de la cultura comunitaria. Actualmente CulturAula tiene sede en la ciudad de Guadalajara, su diseño mixto permite vincular y ejecutar en cualquier espacio territorial, virtual y social, con la finalidad de contribuir a la formación y profesionalización de agentes sociales y culturales locales, nacionales e internacionales, quienes lleven a cabo prácticas relacionadas a la cultura comunitaria y gestión sociocultural, desde un enfoque de derechos humanos con perspectiva de género.",20.66433,-103.35514
55,Promotor/animador cultural,Café Tlecuaxco,Damián Xotlanihua Flores,Veracruz de Ignacio de la Llave,Tequila, Tlecuaxco,301680013,damianx@colmich.ecu.mx,S/D,https://www.facebook.com/Tlecuaxco/?ref=bookmarks,,"Generar un colectivo de jóvenes productores de café que puedan generar actividades de creación, difusión, gestión y empoderamiento del cultivo de café como un símbolo de valor identitario.",18.72907,-97.07001
56,Promotor/animador cultural,Mujeres Sanadoras,Erandi Medina Huerta,Michoacán de Ocampo,Paracho,Paracho de Verduzco,160650001,erandi.medina@colmich.edu.mx,S/D,Facebook Mujeres Sanadoras,S/D,Promover y retomar las prácticas de medicina tradicional para: -Cuidado de la salud y bienestar comunitario -Transmisión de conocimientos y prácticas tradicionales con relación al entorno -Revitalización de los saberes ancestrales y la lengua originaria - Recuperación de autonomía alimentaria,19.65372,-102.04133
57,Gestor,Idea Morada A.C.,Eunice Muruet Luna,Veracruz de Ignacio de la Llave,Veracruz,Veracruz,301930001,ideamorada@gmail.com, https://ideamoradaac.wordpress.com/,https://www.facebook.com/idea.morada,S/D,laboratorio creativo y ciudadano de promoción y gestión cultural que promueve el desarrollo social a través de proyectos artísticos y culturales que propicien la reflexión sobre artes comunitarias y ciudadanía cultural con sede en el Puerto de Veracruz.,19.19176,-96.14498
58,Creador,Relatos de Anáhuac,Ricardo Rodríguez Ramos,Veracruz de Ignacio de la Llave,Xalapa,Xalapa-Enríquez,300870001,relatosdelanahuac@gmail.com,S/D,Facebook.com/Relatosdelanahuac,S/D," Presentar en narración oral y escena referentes históricos, mitológicos, cosmogónicos y culturales que integran el panteón mesoamericano. Empatar los relatos con la actualidad. Investigar en sitio, textos y museos con curiosidad periodística para su posterior adaptación teatral y enriquecimiento de arte multimedia.",19.49453,-96.88756
59,Creador,Isaac Nicolás de la Llave,Isaac Nicolás de la Llave,Veracruz de Ignacio de la Llave,Ixhuatlancillo,Ixhuatlancillo,300810001,sakdelallavearts@gmail.com,S/D,Facebook: Sak Arts,S/D,"Contribuir en la cultura, expresando y representando los saberes y mi sentir por medio del arte para fortalecer la identidad a través de la imagen y la palabra, enalteciendo la lengua Nahuatl.",18.895803+A2:A60,-97.14847
